…
Two of the Volkswagen vehicles are identified as outliers here. These
are the two vehicles with the highest fuel efficiency in the data set:

``` r
autoData %>%
  arrange(desc(hwy)) %>%
  select(id, manufacturer, model, hwy, displ, cyl)
```

    ## # A tibble: 234 x 6
    ##       id manufacturer model        hwy displ   cyl
    ##    <int> <chr>        <chr>      <int> <dbl> <int>
    ##  1   213 volkswagen   jetta         44   1.9     4
    ##  2   222 volkswagen   new beetle    44   1.9     4
    ##  3   223 volkswagen   new beetle    41   1.9     4
    ##  4   197 toyota       corolla       37   1.8     4
    ##  5   106 honda        civic         36   1.8     4
    ##  6   107 honda        civic         36   1.8     4
    ##  7   196 toyota       corolla       35   1.8     4
    ##  8   198 toyota       corolla       35   1.8     4
    ##  9   105 honda        civic         34   1.8     4
    ## 10   100 honda        civic         33   1.6     4
    ## # ... with 224 more rows
…
